<?xml version="1.0" standalone="no"?>
     <!DOCTYPE svg PUBLIC "-//W3C//DTD SVG 1.1//EN"
     "http://www.w3.org/Graphics/SVG/1.1/DTD/svg11.dtd">
    <svg xmlns="http://www.w3.org/2000/svg" version="1.1" width="63.6mm" height="56.2mm" viewBox="107.91 50.99 63.58 56.16">
<title>SVG Image created as hexcell-F_Mask.svg date 2024/04/02 20:16:06 </title>
  <desc>Image generated by PCBNEW </desc>
<g style="fill:#000000; fill-opacity:1.0000;stroke:#000000; stroke-opacity:1.0000; stroke-linecap:round; stroke-linejoin:round;" transform="translate(0 0) scale(1 1)">
<path style="fill:#000000; fill-opacity:1.0000; stroke:none;fill-rule:evenodd;" d="M 138.4734,100.9800 138.4734,99.6800 139.4734,99.6800 139.4734,100.9800 Z" /> 
<path style="fill:#000000; fill-opacity:1.0000; stroke:none;fill-rule:evenodd;" d="M 139.8958,100.9800 139.8958,99.6800 140.8958,99.6800 140.8958,100.9800 Z" /> 
</g>
<g style="fill:#000000; fill-opacity:1.0000; stroke:none;">
<circle cx="152.1460" cy="98.2980" r="1.3500" /> 
</g>
<g style="fill:#000000; fill-opacity:1.0000; stroke:none;">
<circle cx="125.9840" cy="70.1040" r="1.3500" /> 
</g>
<g style="fill:#000000; fill-opacity:1.0000; stroke:none;">
<circle cx="157.9880" cy="66.2940" r="1.3500" /> 
</g>
<g style="fill:#000000; fill-opacity:1.0000; stroke:none;">
<circle cx="127.2540" cy="98.2980" r="1.3500" /> 
<path style="fill:#000000; fill-opacity:1.0000; stroke:none;fill-rule:evenodd;" d="M 123.3200,78.2900 125.0200,78.2900 125.0200,79.6900 123.3200,79.6900 Z" /> 
<path style="fill:#000000; fill-opacity:1.0000; stroke:none;fill-rule:evenodd;" d="M 123.3200,81.6900 125.0200,81.6900 125.0200,83.0900 123.3200,83.0900 Z" /> 
<path style="fill:#000000; fill-opacity:1.0000; stroke:none;fill-rule:evenodd;" d="M 137.3260,77.7100 139.0260,77.7100 139.0260,79.1100 137.3260,79.1100 Z" /> 
<path style="fill:#000000; fill-opacity:1.0000; stroke:none;fill-rule:evenodd;" d="M 137.3260,81.1100 139.0260,81.1100 139.0260,82.5100 137.3260,82.5100 Z" /> 
<path style="fill:#000000; fill-opacity:1.0000; stroke:none;fill-rule:evenodd;" d="M 143.3960,78.8280 143.3960,77.1280 144.7960,77.1280 144.7960,78.8280 Z" /> 
<path style="fill:#000000; fill-opacity:1.0000; stroke:none;fill-rule:evenodd;" d="M 146.7960,78.8280 146.7960,77.1280 148.1960,77.1280 148.1960,78.8280 Z" /> 
<path style="fill:#000000; fill-opacity:1.0000; stroke:none;fill-rule:evenodd;" d="M 138.6300,92.9800 136.9300,92.9800 136.9300,91.5800 138.6300,91.5800 Z" /> 
<path style="fill:#000000; fill-opacity:1.0000; stroke:none;fill-rule:evenodd;" d="M 138.6300,89.5800 136.9300,89.5800 136.9300,88.1800 138.6300,88.1800 Z" /> 
<path style="fill:#000000; fill-opacity:1.0000; stroke:none;fill-rule:evenodd;" d="M 150.7000,64.1700 150.7000,63.4700 151.7000,63.4700 151.7000,64.1700 Z" /> 
<path style="fill:#000000; fill-opacity:1.0000; stroke:none;fill-rule:evenodd;" d="M 150.7000,66.0700 150.7000,65.3700 151.7000,65.3700 151.7000,66.0700 Z" /> 
<path style="fill:#000000; fill-opacity:1.0000; stroke:none;fill-rule:evenodd;" d="M 153.1000,65.1200 153.1000,64.4200 154.1000,64.4200 154.1000,65.1200 Z" /> 
<path style="fill:#000000; fill-opacity:1.0000; stroke:none;fill-rule:evenodd;" d="M 140.7400,88.1300 142.4400,88.1300 142.4400,89.5300 140.7400,89.5300 Z" /> 
<path style="fill:#000000; fill-opacity:1.0000; stroke:none;fill-rule:evenodd;" d="M 140.7400,91.5300 142.4400,91.5300 142.4400,92.9300 140.7400,92.9300 Z" /> 
<path style="fill:#000000; fill-opacity:1.0000; stroke:none;fill-rule:evenodd;" d="M 129.5850,56.6800 129.5850,55.0800 132.5850,55.0800 132.5850,56.6800 Z" /> 
<path style="fill:#000000; fill-opacity:1.0000; stroke:none;fill-rule:evenodd;" d="M 129.5850,59.2200 129.5850,57.6200 132.5850,57.6200 132.5850,59.2200 Z" /> 
<path style="fill:#000000; fill-opacity:1.0000; stroke:none;fill-rule:evenodd;" d="M 129.5850,61.7600 129.5850,60.1600 132.5850,60.1600 132.5850,61.7600 Z" /> 
<path style="fill:#000000; fill-opacity:1.0000; stroke:none;fill-rule:evenodd;" d="M 129.5850,64.3000 129.5850,62.7000 132.5850,62.7000 132.5850,64.3000 Z" /> 
<path style="fill:#000000; fill-opacity:1.0000; stroke:none;fill-rule:evenodd;" d="M 129.5850,66.8400 129.5850,65.2400 132.5850,65.2400 132.5850,66.8400 Z" /> 
<path style="fill:#000000; fill-opacity:1.0000; stroke:none;fill-rule:evenodd;" d="M 129.5850,69.3800 129.5850,67.7800 132.5850,67.7800 132.5850,69.3800 Z" /> 
<path style="fill:#000000; fill-opacity:1.0000; stroke:none;fill-rule:evenodd;" d="M 129.5850,71.9200 129.5850,70.3200 132.5850,70.3200 132.5850,71.9200 Z" /> 
<path style="fill:#000000; fill-opacity:1.0000; stroke:none;fill-rule:evenodd;" d="M 146.8200,71.9200 146.8200,70.3200 149.8200,70.3200 149.8200,71.9200 Z" /> 
<path style="fill:#000000; fill-opacity:1.0000; stroke:none;fill-rule:evenodd;" d="M 146.8200,69.3800 146.8200,67.7800 149.8200,67.7800 149.8200,69.3800 Z" /> 
<path style="fill:#000000; fill-opacity:1.0000; stroke:none;fill-rule:evenodd;" d="M 146.8200,66.8400 146.8200,65.2400 149.8200,65.2400 149.8200,66.8400 Z" /> 
<path style="fill:#000000; fill-opacity:1.0000; stroke:none;fill-rule:evenodd;" d="M 146.8200,64.3000 146.8200,62.7000 149.8200,62.7000 149.8200,64.3000 Z" /> 
<path style="fill:#000000; fill-opacity:1.0000; stroke:none;fill-rule:evenodd;" d="M 146.8200,61.7600 146.8200,60.1600 149.8200,60.1600 149.8200,61.7600 Z" /> 
<path style="fill:#000000; fill-opacity:1.0000; stroke:none;fill-rule:evenodd;" d="M 146.8200,59.2200 146.8200,57.6200 149.8200,57.6200 149.8200,59.2200 Z" /> 
<path style="fill:#000000; fill-opacity:1.0000; stroke:none;fill-rule:evenodd;" d="M 146.8200,56.6800 146.8200,55.0800 149.8200,55.0800 149.8200,56.6800 Z" /> 
<path style="fill:#000000; fill-opacity:1.0000; stroke:none;fill-rule:evenodd;" d="M 140.3750,71.1900 141.5750,71.1900 141.5750,73.5900 140.3750,73.5900 Z" /> 
<path style="fill:#000000; fill-opacity:1.0000; stroke:none;fill-rule:evenodd;" d="M 137.8350,71.1900 139.0350,71.1900 139.0350,73.5900 137.8350,73.5900 Z" /> 
</g>
<g style="fill:#000000; fill-opacity:1.0000; stroke:none;">
<circle cx="138.4300" cy="55.0000" r="0.6000" /> 
</g>
<g style="fill:#000000; fill-opacity:1.0000; stroke:none;">
<circle cx="138.4300" cy="57.5400" r="0.6000" /> 
</g>
<g style="fill:#000000; fill-opacity:1.0000; stroke:none;">
<circle cx="140.9700" cy="57.5400" r="0.6000" /> 
</g>
<g style="fill:#000000; fill-opacity:1.0000; stroke:none;">
<circle cx="140.9700" cy="55.0000" r="0.6000" /> 
<path style="fill:#000000; fill-opacity:1.0000; stroke:none;fill-rule:evenodd;" d="M 152.2168,86.2662 153.0668,84.7939 155.2318,86.0439 154.3818,87.5162 Z" /> 
<path style="fill:#000000; fill-opacity:1.0000; stroke:none;fill-rule:evenodd;" d="M 150.9468,88.4659 151.7968,86.9936 153.9618,88.2436 153.1118,89.7159 Z" /> 
<path style="fill:#000000; fill-opacity:1.0000; stroke:none;fill-rule:evenodd;" d="M 140.4214,93.4974 140.8786,93.4974 140.8786,94.5134 140.4214,94.5134 Z" /> 
<path style="fill:#000000; fill-opacity:1.0000; stroke:none;fill-rule:evenodd;" d="M 139.4714,93.4974 139.9286,93.4974 139.9286,94.5134 139.4714,94.5134 Z" /> 
<path style="fill:#000000; fill-opacity:1.0000; stroke:none;fill-rule:evenodd;" d="M 138.5214,93.4974 138.9786,93.4974 138.9786,94.5134 138.5214,94.5134 Z" /> 
<path style="fill:#000000; fill-opacity:1.0000; stroke:none;fill-rule:evenodd;" d="M 138.5214,95.9866 138.9786,95.9866 138.9786,97.0026 138.5214,97.0026 Z" /> 
<path style="fill:#000000; fill-opacity:1.0000; stroke:none;fill-rule:evenodd;" d="M 140.4214,95.9866 140.8786,95.9866 140.8786,97.0026 140.4214,97.0026 Z" /> 
<path style="fill:#000000; fill-opacity:1.0000; stroke:none;fill-rule:evenodd;" d="M 135.7500,83.7320 135.7500,85.4320 134.3500,85.4320 134.3500,83.7320 Z" /> 
<path style="fill:#000000; fill-opacity:1.0000; stroke:none;fill-rule:evenodd;" d="M 132.3500,83.7320 132.3500,85.4320 130.9500,85.4320 130.9500,83.7320 Z" /> 
<path style="fill:#000000; fill-opacity:1.0000; stroke:none;fill-rule:evenodd;" d="M 134.2780,77.7100 135.9780,77.7100 135.9780,79.1100 134.2780,79.1100 Z" /> 
<path style="fill:#000000; fill-opacity:1.0000; stroke:none;fill-rule:evenodd;" d="M 134.2780,81.1100 135.9780,81.1100 135.9780,82.5100 134.2780,82.5100 Z" /> 
<path style="fill:#000000; fill-opacity:1.0000; stroke:none;fill-rule:evenodd;" d="M 122.0080,83.1720 120.3080,83.1720 120.3080,81.7720 122.0080,81.7720 Z" /> 
<path style="fill:#000000; fill-opacity:1.0000; stroke:none;fill-rule:evenodd;" d="M 122.0080,79.7720 120.3080,79.7720 120.3080,78.3720 122.0080,78.3720 Z" /> 
<path style="fill:#000000; fill-opacity:1.0000; stroke:none;fill-rule:evenodd;" d="M 146.1420,79.5800 146.8420,79.5800 146.8420,80.5800 146.1420,80.5800 Z" /> 
<path style="fill:#000000; fill-opacity:1.0000; stroke:none;fill-rule:evenodd;" d="M 144.2420,79.5800 144.9420,79.5800 144.9420,80.5800 144.2420,80.5800 Z" /> 
<path style="fill:#000000; fill-opacity:1.0000; stroke:none;fill-rule:evenodd;" d="M 145.1920,81.9800 145.8920,81.9800 145.8920,82.9800 145.1920,82.9800 Z" /> 
<path style="fill:#000000; fill-opacity:1.0000; stroke:none;fill-rule:evenodd;" d="M 127.4826,78.3286 127.4826,77.9222 128.2319,77.9222 128.2319,78.3286 Z" /> 
<path style="fill:#000000; fill-opacity:1.0000; stroke:none;fill-rule:evenodd;" d="M 127.4826,79.2684 127.4826,78.8620 128.2319,78.8620 128.2319,79.2684 Z" /> 
<path style="fill:#000000; fill-opacity:1.0000; stroke:none;fill-rule:evenodd;" d="M 127.4826,80.2082 127.4826,79.8018 128.2319,79.8018 128.2319,80.2082 Z" /> 
<path style="fill:#000000; fill-opacity:1.0000; stroke:none;fill-rule:evenodd;" d="M 129.8321,80.2209 129.8321,79.8145 130.5814,79.8145 130.5814,80.2209 Z" /> 
<path style="fill:#000000; fill-opacity:1.0000; stroke:none;fill-rule:evenodd;" d="M 129.8321,78.3159 129.8321,77.9095 130.5814,77.9095 130.5814,78.3159 Z" /> 
<path style="fill:#000000; fill-opacity:1.0000; stroke:none;fill-rule:evenodd;" d="M 126.7300,76.4340 126.7300,73.9340 128.7300,73.9340 128.7300,76.4340 Z" /> 
<path style="fill:#000000; fill-opacity:1.0000; stroke:none;fill-rule:evenodd;" d="M 122.7300,76.4340 122.7300,73.9340 124.7300,73.9340 124.7300,76.4340 Z" /> 
<path style="fill:#000000; fill-opacity:1.0000; stroke:none;fill-rule:evenodd;" d="M 154.9500,70.0780 154.9890,70.0858 155.0221,70.1079 155.0442,70.1410 155.0520,70.1800 155.0520,72.6800 155.0442,72.7190 155.0221,72.7521 154.9890,72.7742 154.9500,72.7820 152.4500,72.7820 152.4110,72.7742 152.3779,72.7521 152.3558,72.7190 152.3480,72.6800 152.3480,70.1800 152.3558,70.1410 152.3779,70.1079 152.4110,70.0858 152.4500,70.0780 Z" /> 
<path style="fill:#000000; fill-opacity:1.0000; stroke:none;fill-rule:evenodd;" d="M 154.9500,77.0780 154.9890,77.0858 155.0221,77.1079 155.0442,77.1410 155.0520,77.1800 155.0520,79.6800 155.0442,79.7190 155.0221,79.7521 154.9890,79.7742 154.9500,79.7820 152.4500,79.7820 152.4110,79.7742 152.3779,79.7521 152.3558,79.7190 152.3480,79.6800 152.3480,77.1800 152.3558,77.1410 152.3779,77.1079 152.4110,77.0858 152.4500,77.0780 Z" /> 
<path style="fill:#000000; fill-opacity:1.0000; stroke:none;fill-rule:evenodd;" d="M 161.9500,70.0780 161.9890,70.0858 162.0221,70.1079 162.0442,70.1410 162.0520,70.1800 162.0520,72.6800 162.0442,72.7190 162.0221,72.7521 161.9890,72.7742 161.9500,72.7820 159.4500,72.7820 159.4110,72.7742 159.3779,72.7521 159.3558,72.7190 159.3480,72.6800 159.3480,70.1800 159.3558,70.1410 159.3779,70.1079 159.4110,70.0858 159.4500,70.0780 Z" /> 
<path style="fill:#000000; fill-opacity:1.0000; stroke:none;fill-rule:evenodd;" d="M 161.9500,77.0780 161.9890,77.0858 162.0221,77.1079 162.0442,77.1410 162.0520,77.1800 162.0520,79.6800 162.0442,79.7190 162.0221,79.7521 161.9890,79.7742 161.9500,79.7820 159.4500,79.7820 159.4110,79.7742 159.3779,79.7521 159.3558,79.7190 159.3480,79.6800 159.3480,77.1800 159.3558,77.1410 159.3779,77.1079 159.4110,77.0858 159.4500,77.0780 Z" /> 
<path style="fill:#000000; fill-opacity:1.0000; stroke:none;fill-rule:evenodd;" d="M 127.5126,86.7936 128.3626,88.2658 126.1975,89.5158 125.3475,88.0436 Z" /> 
<path style="fill:#000000; fill-opacity:1.0000; stroke:none;fill-rule:evenodd;" d="M 126.2426,84.5939 127.0926,86.0661 124.9275,87.3161 124.0775,85.8439 Z" /> 
<path style="fill:#000000; fill-opacity:1.0000; stroke:none;fill-rule:evenodd;" d="M 142.0740,82.4100 140.3740,82.4100 140.3740,81.0100 142.0740,81.0100 Z" /> 
<path style="fill:#000000; fill-opacity:1.0000; stroke:none;fill-rule:evenodd;" d="M 142.0740,79.0100 140.3740,79.0100 140.3740,77.6100 142.0740,77.6100 Z" /> 
<path style="fill:#000000; fill-opacity:1.0000; stroke:none;fill-rule:evenodd;" d="M 154.0700,62.0900 152.3700,62.0900 152.3700,60.6900 154.0700,60.6900 Z" /> 
<path style="fill:#000000; fill-opacity:1.0000; stroke:none;fill-rule:evenodd;" d="M 154.0700,58.6900 152.3700,58.6900 152.3700,57.2900 154.0700,57.2900 Z" /> 
<path style="fill:#000000; fill-opacity:1.0000; stroke:none;fill-rule:evenodd;" d="M 137.3000,76.6690 137.3000,74.9690 138.7000,74.9690 138.7000,76.6690 Z" /> 
<path style="fill:#000000; fill-opacity:1.0000; stroke:none;fill-rule:evenodd;" d="M 140.7000,76.6690 140.7000,74.9690 142.1000,74.9690 142.1000,76.6690 Z" /> 
<path style="fill:#000000; fill-opacity:1.0000; stroke:none;fill-rule:evenodd;" d="M 143.6760,84.7220 145.3760,84.7220 145.3760,86.1220 143.6760,86.1220 Z" /> 
<path style="fill:#000000; fill-opacity:1.0000; stroke:none;fill-rule:evenodd;" d="M 143.6760,88.1220 145.3760,88.1220 145.3760,89.5220 143.6760,89.5220 Z" /> 
<path style="fill:#000000; fill-opacity:1.0000; stroke:none;fill-rule:evenodd;" d="M 160.2260,80.6980 160.2260,82.3980 158.2260,82.3980 158.2260,80.6980 Z" /> 
<path style="fill:#000000; fill-opacity:1.0000; stroke:none;fill-rule:evenodd;" d="M 156.2260,80.6980 156.2260,82.3980 154.2260,82.3980 154.2260,80.6980 Z" /> 
</g>
<g style="fill:#000000; fill-opacity:1.0000; stroke:none;">
<circle cx="113.6585" cy="82.0420" r="0.4500" /> 
</g>
<g style="fill:#000000; fill-opacity:1.0000; stroke:none;">
<circle cx="115.1585" cy="84.6401" r="0.4500" /> 
<path style="fill:#000000; fill-opacity:1.0000; stroke:none;fill-rule:evenodd;" d="M 112.9997,78.1710 113.0374,78.1582 113.0771,78.1608 113.1128,78.1784 113.1390,78.2083 114.1040,79.8797 114.1168,79.9174 114.1142,79.9571 114.0966,79.9928 114.0667,80.0191 112.8846,80.7016 112.8469,80.7144 112.8072,80.7118 112.7715,80.6942 112.7452,80.6642 111.7802,78.9928 111.7674,78.9551 111.7700,78.9154 111.7876,78.8797 111.8176,78.8535 Z" /> 
<path style="fill:#000000; fill-opacity:1.0000; stroke:none;fill-rule:evenodd;" d="M 111.8176,78.8535 111.8552,78.8407 111.8950,78.8433 111.9307,78.8609 111.9569,78.8908 112.9219,80.5622 112.9347,80.5999 112.9321,80.6396 112.9145,80.6753 112.8846,80.7016 111.7024,81.3841 111.6648,81.3969 111.6250,81.3943 111.5893,81.3767 111.5631,81.3467 110.5981,79.6753 110.5853,79.6376 110.5879,79.5979 110.6055,79.5622 110.6354,79.5360 Z" /> 
<path style="fill:#000000; fill-opacity:1.0000; stroke:none;fill-rule:evenodd;" d="M 113.8862,80.6404 113.8734,80.6027 113.8760,80.5630 113.8936,80.5273 113.9235,80.5010 115.2225,79.7510 115.2602,79.7382 115.2999,79.7408 115.3356,79.7584 115.3619,79.7884 115.7119,80.3946 115.7247,80.4323 115.7220,80.4720 115.7044,80.5077 115.6745,80.5339 114.3755,81.2839 114.3378,81.2967 114.2981,81.2941 114.2624,81.2765 114.2362,81.2466 Z" /> 
<path style="fill:#000000; fill-opacity:1.0000; stroke:none;fill-rule:evenodd;" d="M 117.1146,85.2982 117.1523,85.2854 117.1920,85.2880 117.2277,85.3056 117.2539,85.3355 118.2189,87.0069 118.2317,87.0446 118.2291,87.0843 118.2115,87.1200 118.1816,87.1463 116.9995,87.8288 116.9618,87.8416 116.9221,87.8390 116.8864,87.8214 116.8601,87.7914 115.8951,86.1200 115.8823,86.0823 115.8849,86.0426 115.9025,86.0069 115.9325,85.9807 Z" /> 
<path style="fill:#000000; fill-opacity:1.0000; stroke:none;fill-rule:evenodd;" d="M 115.9325,85.9807 115.9701,85.9679 116.0099,85.9705 116.0456,85.9881 116.0718,86.0180 117.0368,87.6894 117.0496,87.7271 117.0470,87.7668 117.0294,87.8025 116.9995,87.8288 115.8173,88.5113 115.7797,88.5241 115.7399,88.5215 115.7042,88.5039 115.6780,88.4739 114.7130,86.8025 114.7002,86.7648 114.7028,86.7251 114.7204,86.6894 114.7503,86.6632 Z" /> 
<path style="fill:#000000; fill-opacity:1.0000; stroke:none;fill-rule:evenodd;" d="M 115.3862,83.2384 115.3734,83.2008 115.3760,83.1610 115.3936,83.1254 115.4235,83.0991 116.7225,82.3491 116.7602,82.3363 116.7999,82.3389 116.8356,82.3565 116.8619,82.3864 117.2119,82.9927 117.2247,83.0304 117.2220,83.0701 117.2044,83.1058 117.1745,83.1320 115.8755,83.8820 115.8378,83.8948 115.7981,83.8922 115.7624,83.8746 115.7362,83.8447 Z" /> 
<path style="fill:#000000; fill-opacity:1.0000; stroke:none;fill-rule:evenodd;" d="M 116.1362,84.5375 116.1234,84.4998 116.1260,84.4601 116.1436,84.4244 116.1735,84.3982 117.4725,83.6482 117.5102,83.6354 117.5499,83.6380 117.5856,83.6556 117.6119,83.6855 117.9619,84.2917 117.9747,84.3294 117.9720,84.3691 117.9544,84.4048 117.9245,84.4310 116.6255,85.1810 116.5878,85.1938 116.5481,85.1912 116.5124,85.1736 116.4862,85.1437 Z" /> 
</g> 
</svg>